aula4atv1/simulation/qsim/aula4atv1.msim.vcd
$comment
	File created using the following command:
		vcd file aula4atv1.msim.vcd -direction
$end
$date
	Tue Sep 06 11:04:51 2022
$end
$version
	ModelSim Version 2020.1
$end
$timescale
	1ps
$end

$scope module aula4atv1_vlg_vec_tst $end
$var reg 1 ! CLOCK_50 $end
$var reg 4 " KEY [3:0] $end
$var wire 1 # OUT_EQUATION [7] $end
$var wire 1 $ OUT_EQUATION [6] $end
$var wire 1 % OUT_EQUATION [5] $end
$var wire 1 & OUT_EQUATION [4] $end
$var wire 1 ' OUT_EQUATION [3] $end
$var wire 1 ( OUT_EQUATION [2] $end
$var wire 1 ) OUT_EQUATION [1] $end
$var wire 1 * OUT_EQUATION [0] $end

$scope module i1 $end
$var wire 1 + gnd $end
$var wire 1 , vcc $end
$var wire 1 - unknown $end
$var tri1 1 . devclrn $end
$var tri1 1 / devpor $end
$var tri1 1 0 devoe $end
$var wire 1 1 CLOCK_50~input_o $end
$var wire 1 2 KEY[1]~input_o $end
$var wire 1 3 KEY[2]~input_o $end
$var wire 1 4 KEY[3]~input_o $end
$var wire 1 5 ~QUARTUS_CREATED_GND~I_combout $end
$var wire 1 6 KEY[0]~input_o $end
$var wire 1 7 KEY[0]~inputCLKENA0_outclk $end
$var wire 1 8 PC|DOUT[0]~0_combout $end
$var wire 1 9 incrementaPC|Add0~1_sumout $end
$var wire 1 : incrementaPC|Add0~2 $end
$var wire 1 ; incrementaPC|Add0~5_sumout $end
$var wire 1 < incrementaPC|Add0~6 $end
$var wire 1 = incrementaPC|Add0~9_sumout $end
$var wire 1 > PC|DOUT[3]~DUPLICATE_q $end
$var wire 1 ? PC|DOUT[2]~DUPLICATE_q $end
$var wire 1 @ PC|DOUT[0]~DUPLICATE_q $end
$var wire 1 A incrementaPC|Add0~10 $end
$var wire 1 B incrementaPC|Add0~25_sumout $end
$var wire 1 C incrementaPC|Add0~26 $end
$var wire 1 D incrementaPC|Add0~29_sumout $end
$var wire 1 E incrementaPC|Add0~30 $end
$var wire 1 F incrementaPC|Add0~21_sumout $end
$var wire 1 G incrementaPC|Add0~22 $end
$var wire 1 H incrementaPC|Add0~17_sumout $end
$var wire 1 I incrementaPC|Add0~18 $end
$var wire 1 J incrementaPC|Add0~13_sumout $end
$var wire 1 K ROM1|memROM~1_combout $end
$var wire 1 L ROM1|memROM~4_combout $end
$var wire 1 M PC|DOUT[1]~DUPLICATE_q $end
$var wire 1 N ROM1|memROM~0_combout $end
$var wire 1 O ROM1|memROM~2_combout $end
$var wire 1 P ROM1|memROM~3_combout $end
$var wire 1 Q DECO|saida[5]~0_combout $end
$var wire 1 R DECO|Equal5~0_combout $end
$var wire 1 S ROM1|memROM~6_combout $end
$var wire 1 T DECO|saida[3]~1_combout $end
$var wire 1 U ROM1|memROM~8_combout $end
$var wire 1 V ROM1|memROM~7_combout $end
$var wire 1 W RAM1|ram~85_combout $end
$var wire 1 X RAM1|ram~83_combout $end
$var wire 1 Y RAM1|ram~17_q $end
$var wire 1 Z RAM1|ram~84_combout $end
$var wire 1 [ RAM1|ram~33_q $end
$var wire 1 \ RAM1|ram~82_combout $end
$var wire 1 ] RAM1|ram~41_q $end
$var wire 1 ^ ROM1|memROM~5_combout $end
$var wire 1 _ RAM1|ram~81_combout $end
$var wire 1 ` RAM1|ram~25_q $end
$var wire 1 a RAM1|ram~114_combout $end
$var wire 1 b DECO|Equal5~1_combout $end
$var wire 1 c ULA1|Add0~34_cout $end
$var wire 1 d ULA1|Add0~1_sumout $end
$var wire 1 e ULA1|saida[0]~0_combout $end
$var wire 1 f DECO|saida~2_combout $end
$var wire 1 g RAM1|ram~42_q $end
$var wire 1 h RAM1|ram~18_q $end
$var wire 1 i RAM1|ram~34_q $end
$var wire 1 j RAM1|ram~26_q $end
$var wire 1 k RAM1|ram~110_combout $end
$var wire 1 l ULA1|Add0~2 $end
$var wire 1 m ULA1|Add0~5_sumout $end
$var wire 1 n ULA1|saida[1]~1_combout $end
$var wire 1 o RAM1|ram~19_q $end
$var wire 1 p RAM1|ram~43feeder_combout $end
$var wire 1 q RAM1|ram~43_q $end
$var wire 1 r RAM1|ram~35feeder_combout $end
$var wire 1 s RAM1|ram~35_q $end
$var wire 1 t RAM1|ram~27feeder_combout $end
$var wire 1 u RAM1|ram~27_q $end
$var wire 1 v RAM1|ram~106_combout $end
$var wire 1 w ULA1|Add0~6 $end
$var wire 1 x ULA1|Add0~9_sumout $end
$var wire 1 y ULA1|saida[2]~2_combout $end
$var wire 1 z REGA|DOUT[2]~DUPLICATE_q $end
$var wire 1 { RAM1|ram~44_q $end
$var wire 1 | RAM1|ram~36_q $end
$var wire 1 } RAM1|ram~20_q $end
$var wire 1 ~ RAM1|ram~28feeder_combout $end
$var wire 1 !! RAM1|ram~28_q $end
$var wire 1 "! RAM1|ram~102_combout $end
$var wire 1 #! REGA|DOUT[3]~DUPLICATE_q $end
$var wire 1 $! ULA1|Add0~10 $end
$var wire 1 %! ULA1|Add0~13_sumout $end
$var wire 1 &! ULA1|saida[3]~3_combout $end
$var wire 1 '! RAM1|ram~45_q $end
$var wire 1 (! REGA|DOUT[4]~DUPLICATE_q $end
$var wire 1 )! RAM1|ram~21_q $end
$var wire 1 *! RAM1|ram~37_q $end
$var wire 1 +! RAM1|ram~29_q $end
$var wire 1 ,! RAM1|ram~98_combout $end
$var wire 1 -! ULA1|Add0~14 $end
$var wire 1 .! ULA1|Add0~17_sumout $end
$var wire 1 /! ULA1|saida[4]~4_combout $end
$var wire 1 0! RAM1|ram~22_q $end
$var wire 1 1! RAM1|ram~38feeder_combout $end
$var wire 1 2! RAM1|ram~38_q $end
$var wire 1 3! RAM1|ram~46_q $end
$var wire 1 4! RAM1|ram~30_q $end
$var wire 1 5! RAM1|ram~94_combout $end
$var wire 1 6! ULA1|Add0~18 $end
$var wire 1 7! ULA1|Add0~21_sumout $end
$var wire 1 8! ULA1|saida[5]~5_combout $end
$var wire 1 9! REGA|DOUT[5]~DUPLICATE_q $end
$var wire 1 :! RAM1|ram~23_q $end
$var wire 1 ;! RAM1|ram~47_q $end
$var wire 1 <! RAM1|ram~39feeder_combout $end
$var wire 1 =! RAM1|ram~39_q $end
$var wire 1 >! RAM1|ram~31_q $end
$var wire 1 ?! RAM1|ram~90_combout $end
$var wire 1 @! ULA1|Add0~22 $end
$var wire 1 A! ULA1|Add0~25_sumout $end
$var wire 1 B! ULA1|saida[6]~6_combout $end
$var wire 1 C! RAM1|ram~48feeder_combout $end
$var wire 1 D! RAM1|ram~48_q $end
$var wire 1 E! RAM1|ram~24_q $end
$var wire 1 F! RAM1|ram~40feeder_combout $end
$var wire 1 G! RAM1|ram~40_q $end
$var wire 1 H! RAM1|ram~32feeder_combout $end
$var wire 1 I! RAM1|ram~32_q $end
$var wire 1 J! RAM1|ram~86_combout $end
$var wire 1 K! ULA1|Add0~26 $end
$var wire 1 L! ULA1|Add0~29_sumout $end
$var wire 1 M! ULA1|saida[7]~7_combout $end
$var wire 1 N! REGA|DOUT [7] $end
$var wire 1 O! REGA|DOUT [6] $end
$var wire 1 P! REGA|DOUT [5] $end
$var wire 1 Q! REGA|DOUT [4] $end
$var wire 1 R! REGA|DOUT [3] $end
$var wire 1 S! REGA|DOUT [2] $end
$var wire 1 T! REGA|DOUT [1] $end
$var wire 1 U! REGA|DOUT [0] $end
$var wire 1 V! PC|DOUT [8] $end
$var wire 1 W! PC|DOUT [7] $end
$var wire 1 X! PC|DOUT [6] $end
$var wire 1 Y! PC|DOUT [5] $end
$var wire 1 Z! PC|DOUT [4] $end
$var wire 1 [! PC|DOUT [3] $end
$var wire 1 \! PC|DOUT [2] $end
$var wire 1 ]! PC|DOUT [1] $end
$var wire 1 ^! PC|DOUT [0] $end
$upscope $end
$upscope $end
$enddefinitions $end
#0
$dumpvars
x!
bx1 "
0*
0)
0(
0'
0&
0%
0$
0#
0+
1,
x-
1.
1/
10
x1
x2
x3
x4
05
16
17
18
09
0:
0;
0<
0=
0>
0?
0@
0A
0B
0C
0D
0E
0F
0G
0H
0I
0J
1K
0L
0M
0N
0O
1P
1Q
0R
0S
1T
0U
0V
0W
0X
0Y
0Z
0[
0\
0]
1^
0_
0`
0a
0b
1c
0d
0e
1f
0g
0h
0i
0j
0k
1l
0m
0n
0o
0p
0q
0r
0s
0t
0u
0v
1w
1x
1y
0z
0{
0|
0}
0~
0!!
0"!
0#!
0$!
1%!
0&!
0'!
0(!
0)!
0*!
0+!
0,!
0-!
1.!
0/!
00!
01!
02!
03!
04!
05!
06!
17!
08!
09!
0:!
0;!
0<!
0=!
0>!
0?!
0@!
1A!
0B!
0C!
0D!
0E!
0F!
0G!
0H!
0I!
0J!
0K!
1L!
0M!
0U!
0T!
0S!
0R!
0Q!
0P!
0O!
0N!
0^!
0]!
0\!
0[!
0Z!
0Y!
0X!
0W!
0V!
$end
#10000
bx0 "
06
07
#20000
bx1 "
16
17
1S!
1@
1^!
1z
1(
1W
0^
1N
1L
1$!
0x
19
08
1r
1p
1t
1-!
0%!
0l
1d
1_
0f
1S
0Q
1x
0y
1e
16!
0.!
0w
1m
1l
0d
0T
1M!
1B!
18!
1/!
0e
1@!
07!
0x
1w
0m
1y
1n
0/!
1K!
0A!
1x
0n
0y
08!
0L!
1y
0B!
0M!
#30000
bx0 "
06
07
#40000
bx1 "
16
17
1u
1M
0@
1]!
0^!
0W
1U
0N
1v
18
0x
1f
0S
1Q
1V
0_
0v
0w
1m
1x
0l
1d
1T
0y
0x
0m
1n
1e
#50000
bx0 "
06
07
#60000
bx1 "
16
17
0S!
1@
1^!
0z
1T!
1U!
1*
1)
0(
1W
1:
0U
1N
0L
1l
0d
1m
0$!
1x
09
08
0r
0p
0t
1w
0m
0-!
1%!
1d
1Z
0f
1S
0Q
0V
1;
0e
1$!
0x
06!
1.!
1m
0Z
1X
0T
0n
1&!
1-!
0%!
0@!
17!
1n
1e
1/!
16!
0.!
0K!
1A!
18!
0&!
1@!
07!
1L!
1B!
0/!
1K!
0A!
1M!
08!
0L!
0B!
0M!
#70000
bx0 "
06
07
#80000
bx1 "
16
17
1h
1Y
0M
0@
1?
1\!
0]!
0^!
0W
0:
1^
0P
1<
1O
0N
1a
1k
18
0;
0<
0m
0d
1f
1b
0S
0^
0k
0a
0X
1;
1=
0$!
1x
1k
1a
1L!
0K!
1A!
0@!
17!
06!
1.!
0-!
1%!
0c
0=
0e
0n
0%!
0L!
0A!
07!
0.!
1m
1&!
1/!
18!
1B!
1M!
1y
1n
0/!
08!
0B!
0M!
0&!
#90000
bx0 "
06
07
#100000
bx1 "
16
17
1S!
1@
1^!
1z
0U!
0*
1(
0l
1d
1$!
0x
19
08
1r
1p
1t
0m
1%!
0y
1e
1&!
0n
#110000
bx0 "
06
07
#120000
bx1 "
16
17
1#!
0S!
1M
0@
1]!
0^!
1R!
0z
0T!
1U!
1*
0)
0(
1'
1L
1N
1-!
0%!
1l
0d
0w
1m
0$!
1x
18
0r
0p
0t
1~
1.!
1w
0m
0x
0-!
1%!
0b
1S
1v
0k
0a
1y
1n
0e
0&!
1x
1L!
1A!
17!
1-!
0%!
1c
0n
0y
1/!
1&!
16!
0.!
1d
0&!
18!
1B!
1M!
1y
1@!
07!
1e
0/!
1K!
0A!
08!
0L!
0B!
0M!
#130000
bx0 "
06
07
#140000
bx1 "
16
17
0#!
1S!
1@
1^!
0R!
1z
1(
0'
1:
1U
0O
0L
0-!
1%!
1$!
0x
09
08
1r
1p
1t
0~
1<
06!
1.!
1-!
0%!
0v
1k
1a
1R
1V
0;
0y
1&!
0@!
17!
16!
0.!
0w
1m
0k
0a
1T
0d
1x
1=
0&!
0K!
1A!
1@!
07!
0x
1d
1w
0m
0e
1L!
1K!
0A!
1x
0L!
#150000
bx0 "
06
07
#160000
bx1 "
16
17
0S!
0M
0@
0?
1>
0\!
0]!
0^!
1[!
0z
0U!
0*
0(
1A
0:
0U
0<
0N
0d
0x
0=
18
1;
0r
0p
0t
0A
0f
0S
0V
1B
0;
1=
1k
1a
0T
0B
0l
1d
0w
1m
0m
0$!
1x
1n
1e
0-!
1%!
1y
0n
06!
1.!
1&!
0@!
17!
1/!
0K!
1A!
18!
1L!
1B!
1M!
#170000
bx0 "
06
07
#180000
bx1 "
16
17
1@
1^!
19
08
#190000
bx0 "
06
07
#200000
bx1 "
16
17
1M
0@
1]!
0^!
18
#210000
bx0 "
06
07
#220000
bx1 "
16
17
1@
1^!
1:
09
08
1;
#230000
bx0 "
06
07
#240000
bx1 "
16
17
0M
0@
1?
1\!
0]!
0^!
0:
1<
18
0;
0<
1A
1;
0=
0A
1=
1B
0B
#250000
bx0 "
06
07
#260000
bx1 "
16
17
1@
1^!
19
08
#270000
bx0 "
06
07
#280000
bx1 "
16
17
1M
0@
1]!
0^!
18
#290000
bx0 "
06
07
#300000
bx1 "
16
17
1@
1^!
1:
09
08
1<
0;
1A
0=
1B
#310000
bx0 "
06
07
#320000
bx1 "
16
17
0M
1Z!
0@
0?
0>
0\!
0]!
0^!
0[!
0A
0:
1P
0<
0K
1C
1=
18
1;
0B
0C
1B
0;
0=
1D
0D
#330000
bx0 "
06
07
#340000
bx1 "
16
17
1@
1^!
1N
19
08
#350000
bx0 "
06
07
#360000
bx1 "
16
17
1M
0@
1]!
0^!
1U
0N
18
#370000
bx0 "
06
07
#380000
bx1 "
16
17
1@
1^!
1:
0U
1N
09
08
1;
#390000
bx0 "
06
07
#400000
bx1 "
16
17
0M
0@
1?
1\!
0]!
0^!
0:
0P
1<
1O
0N
18
0;
0<
1;
1=
0=
#410000
bx0 "
06
07
#420000
bx1 "
16
17
1@
1^!
19
08
#430000
bx0 "
06
07
#440000
bx1 "
16
17
1M
0@
1]!
0^!
1N
18
#450000
bx0 "
06
07
#460000
bx1 "
16
17
1@
1^!
1:
1U
0O
09
08
1<
0;
1=
#470000
bx0 "
06
07
#480000
bx1 "
16
17
0M
0@
0?
1>
0\!
0]!
0^!
1[!
1A
0:
0U
0<
0N
0=
18
1;
1C
0A
0B
0;
1=
0C
1D
1B
0D
#490000
bx0 "
06
07
#500000
bx1 "
16
17
1@
1^!
19
08
#510000
bx0 "
06
07
#520000
bx1 "
16
17
1M
0@
1]!
0^!
18
#530000
bx0 "
06
07
#540000
bx1 "
16
17
1@
1^!
1:
09
08
1;
#550000
bx0 "
06
07
#560000
bx1 "
16
17
0M
0@
1?
1\!
0]!
0^!
0:
1<
18
0;
0<
1A
1;
0=
0A
1C
1=
0B
0C
1B
1D
0D
#570000
bx0 "
06
07
#580000
bx1 "
16
17
1@
1^!
19
08
#590000
bx0 "
06
07
#600000
bx1 "
16
17
1M
0@
1]!
0^!
18
#610000
bx0 "
06
07
#620000
bx1 "
16
17
1@
1^!
1:
09
08
1<
0;
1A
0=
1C
0B
1D
#630000
bx0 "
06
07
#640000
bx1 "
16
17
0M
1Y!
0Z!
0@
0?
0>
0\!
0]!
0^!
0[!
0A
0:
1P
0<
0C
1E
1=
18
1;
1B
0D
0E
0B
0;
0=
1D
1F
0F
#650000
bx0 "
06
07
#660000
bx1 "
16
17
1@
1^!
1N
19
08
#670000
bx0 "
06
07
#680000
bx1 "
16
17
1M
0@
1]!
0^!
1U
0N
18
#690000
bx0 "
06
07
#700000
bx1 "
16
17
1@
1^!
1:
0U
1N
09
08
1;
#710000
bx0 "
06
07
#720000
bx1 "
16
17
0M
0@
1?
1\!
0]!
0^!
0:
0P
1<
1O
0N
18
0;
0<
1;
1=
0=
#730000
bx0 "
06
07
#740000
bx1 "
16
17
1@
1^!
19
08
#750000
bx0 "
06
07
#760000
bx1 "
16
17
1M
0@
1]!
0^!
1N
18
#770000
bx0 "
06
07
#780000
bx1 "
16
17
1@
1^!
1:
1U
0O
09
08
1<
0;
1=
#790000
bx0 "
06
07
#800000
bx1 "
16
17
0M
0@
0?
1>
0\!
0]!
0^!
1[!
1A
0:
0U
0<
0N
0=
18
1;
0A
1B
0;
1=
0B
#810000
bx0 "
06
07
#820000
bx1 "
16
17
1@
1^!
19
08
#830000
bx0 "
06
07
#840000
bx1 "
16
17
1M
0@
1]!
0^!
18
#850000
bx0 "
06
07
#860000
bx1 "
16
17
1@
1^!
1:
09
08
1;
#870000
bx0 "
06
07
#880000
bx1 "
16
17
0M
0@
1?
1\!
0]!
0^!
0:
1<
18
0;
0<
1A
1;
0=
0A
1=
1B
0B
#890000
bx0 "
06
07
#900000
bx1 "
16
17
1@
1^!
19
08
#910000
bx0 "
06
07
#920000
bx1 "
16
17
1M
0@
1]!
0^!
18
#930000
bx0 "
06
07
#940000
bx1 "
16
17
1@
1^!
1:
09
08
1<
0;
1A
0=
1B
#950000
bx0 "
06
07
#960000
bx1 "
16
17
0M
1Z!
0@
0?
0>
0\!
0]!
0^!
0[!
0A
0:
1P
0<
1C
1=
18
1;
0B
0C
1E
1B
0;
0=
0D
0E
1D
1F
0F
#970000
bx0 "
06
07
#980000
bx1 "
16
17
1@
1^!
1N
19
08
#990000
bx0 "
06
07
