aula5atv1/simulation/qsim/aula5atv1.msim.vcd
$comment
	File created using the following command:
		vcd file aula5atv1.msim.vcd -direction
$end
$date
	Sun Sep 18 10:02:09 2022
$end
$version
	ModelSim Version 2020.1
$end
$timescale
	1ps
$end

$scope module aula5atv1_vhd_vec_tst $end
$var wire 1 ! CLOCK_50 $end
$var wire 1 " KEY [3] $end
$var wire 1 # KEY [2] $end
$var wire 1 $ KEY [1] $end
$var wire 1 % KEY [0] $end
$var wire 1 & Palavra_Controle [6] $end
$var wire 1 ' Palavra_Controle [5] $end
$var wire 1 ( Palavra_Controle [4] $end
$var wire 1 ) Palavra_Controle [3] $end
$var wire 1 * Palavra_Controle [2] $end
$var wire 1 + Palavra_Controle [1] $end
$var wire 1 , Palavra_Controle [0] $end
$var wire 1 - PC_OUT [8] $end
$var wire 1 . PC_OUT [7] $end
$var wire 1 / PC_OUT [6] $end
$var wire 1 0 PC_OUT [5] $end
$var wire 1 1 PC_OUT [4] $end
$var wire 1 2 PC_OUT [3] $end
$var wire 1 3 PC_OUT [2] $end
$var wire 1 4 PC_OUT [1] $end
$var wire 1 5 PC_OUT [0] $end

$scope module i1 $end
$var wire 1 6 gnd $end
$var wire 1 7 vcc $end
$var wire 1 8 unknown $end
$var wire 1 9 devoe $end
$var wire 1 : devclrn $end
$var wire 1 ; devpor $end
$var wire 1 < ww_devoe $end
$var wire 1 = ww_devclrn $end
$var wire 1 > ww_devpor $end
$var wire 1 ? ww_CLOCK_50 $end
$var wire 1 @ ww_KEY [3] $end
$var wire 1 A ww_KEY [2] $end
$var wire 1 B ww_KEY [1] $end
$var wire 1 C ww_KEY [0] $end
$var wire 1 D ww_PC_OUT [8] $end
$var wire 1 E ww_PC_OUT [7] $end
$var wire 1 F ww_PC_OUT [6] $end
$var wire 1 G ww_PC_OUT [5] $end
$var wire 1 H ww_PC_OUT [4] $end
$var wire 1 I ww_PC_OUT [3] $end
$var wire 1 J ww_PC_OUT [2] $end
$var wire 1 K ww_PC_OUT [1] $end
$var wire 1 L ww_PC_OUT [0] $end
$var wire 1 M ww_Palavra_Controle [6] $end
$var wire 1 N ww_Palavra_Controle [5] $end
$var wire 1 O ww_Palavra_Controle [4] $end
$var wire 1 P ww_Palavra_Controle [3] $end
$var wire 1 Q ww_Palavra_Controle [2] $end
$var wire 1 R ww_Palavra_Controle [1] $end
$var wire 1 S ww_Palavra_Controle [0] $end
$var wire 1 T \CLOCK_50~input_o\ $end
$var wire 1 U \KEY[1]~input_o\ $end
$var wire 1 V \KEY[2]~input_o\ $end
$var wire 1 W \KEY[3]~input_o\ $end
$var wire 1 X \KEY[0]~input_o\ $end
$var wire 1 Y \KEY[0]~inputCLKENA0_outclk\ $end
$var wire 1 Z \incrementaPC|Add0~1_sumout\ $end
$var wire 1 [ \incrementaPC|Add0~2\ $end
$var wire 1 \ \incrementaPC|Add0~6\ $end
$var wire 1 ] \incrementaPC|Add0~10\ $end
$var wire 1 ^ \incrementaPC|Add0~13_sumout\ $end
$var wire 1 _ \~GND~combout\ $end
$var wire 1 ` \incrementaPC|Add0~14\ $end
$var wire 1 a \incrementaPC|Add0~17_sumout\ $end
$var wire 1 b \incrementaPC|Add0~18\ $end
$var wire 1 c \incrementaPC|Add0~21_sumout\ $end
$var wire 1 d \incrementaPC|Add0~22\ $end
$var wire 1 e \incrementaPC|Add0~25_sumout\ $end
$var wire 1 f \incrementaPC|Add0~26\ $end
$var wire 1 g \incrementaPC|Add0~29_sumout\ $end
$var wire 1 h \PC|DOUT[7]~DUPLICATE_q\ $end
$var wire 1 i \incrementaPC|Add0~30\ $end
$var wire 1 j \incrementaPC|Add0~33_sumout\ $end
$var wire 1 k \ROM1|memROM~5_combout\ $end
$var wire 1 l \ROM1|memROM~1_combout\ $end
$var wire 1 m \ROM1|memROM~0_combout\ $end
$var wire 1 n \ROM1|memROM~4_combout\ $end
$var wire 1 o \incrementaPC|Add0~9_sumout\ $end
$var wire 1 p \PC|DOUT[2]~DUPLICATE_q\ $end
$var wire 1 q \ROM1|memROM~3_combout\ $end
$var wire 1 r \incrementaPC|Add0~5_sumout\ $end
$var wire 1 s \PC|DOUT[1]~DUPLICATE_q\ $end
$var wire 1 t \ROM1|memROM~2_combout\ $end
$var wire 1 u \PC|DOUT[6]~DUPLICATE_q\ $end
$var wire 1 v \PC|DOUT\ [8] $end
$var wire 1 w \PC|DOUT\ [7] $end
$var wire 1 x \PC|DOUT\ [6] $end
$var wire 1 y \PC|DOUT\ [5] $end
$var wire 1 z \PC|DOUT\ [4] $end
$var wire 1 { \PC|DOUT\ [3] $end
$var wire 1 | \PC|DOUT\ [2] $end
$var wire 1 } \PC|DOUT\ [1] $end
$var wire 1 ~ \PC|DOUT\ [0] $end
$var wire 1 !! \PC|ALT_INV_DOUT\ [8] $end
$var wire 1 "! \PC|ALT_INV_DOUT\ [7] $end
$var wire 1 #! \PC|ALT_INV_DOUT\ [6] $end
$var wire 1 $! \PC|ALT_INV_DOUT\ [5] $end
$var wire 1 %! \PC|ALT_INV_DOUT\ [4] $end
$var wire 1 &! \PC|ALT_INV_DOUT\ [3] $end
$var wire 1 '! \PC|ALT_INV_DOUT\ [2] $end
$var wire 1 (! \PC|ALT_INV_DOUT\ [1] $end
$var wire 1 )! \PC|ALT_INV_DOUT\ [0] $end
$var wire 1 *! \ROM1|ALT_INV_memROM~0_combout\ $end
$var wire 1 +! \PC|ALT_INV_DOUT[1]~DUPLICATE_q\ $end
$var wire 1 ,! \ROM1|ALT_INV_memROM~5_combout\ $end
$var wire 1 -! \PC|ALT_INV_DOUT[7]~DUPLICATE_q\ $end
$var wire 1 .! \PC|ALT_INV_DOUT[2]~DUPLICATE_q\ $end
$upscope $end
$upscope $end
$enddefinitions $end
#0
$dumpvars
0!
06
17
x8
19
1:
1;
1<
1=
1>
0?
0T
xU
xV
xW
xX
xY
1Z
0[
0\
0]
0^
0_
0`
0a
0b
0c
0d
0e
0f
0g
0h
0i
0j
1k
1l
1m
1n
0o
0p
0q
0r
0s
0t
0u
0*!
1+!
0,!
1-!
1.!
0-
0.
0/
00
01
02
03
04
05
1&
0'
0(
0)
0*
0+
0,
x@
xA
xB
xC
0D
0E
0F
0G
0H
0I
0J
0K
0L
1M
0N
0O
0P
0Q
0R
0S
0v
0w
0x
0y
0z
0{
0|
0}
0~
1!!
1"!
1#!
1$!
1%!
1&!
1'!
1(!
1)!
x"
x#
x$
x%
$end
#10000
1!
1?
1T
#20000
0!
0?
0T
#30000
1!
1?
1T
#40000
0!
0?
0T
#50000
1!
1?
1T
#60000
0!
0?
0T
#70000
1!
1?
1T
#80000
0!
0?
0T
#90000
1!
1?
1T
#100000
0!
0?
0T
#110000
1!
1?
1T
#120000
0!
0?
0T
#130000
1!
1?
1T
#140000
0!
0?
0T
#150000
1!
1?
1T
#160000
0!
0?
0T
#170000
1!
1?
1T
#180000
0!
0?
0T
#190000
1!
1?
1T
#200000
0!
0?
0T
#210000
1!
1?
1T
#220000
0!
0?
0T
#230000
1!
1?
1T
#240000
0!
0?
0T
#250000
1!
1?
1T
#260000
0!
0?
0T
#270000
1!
1?
1T
#280000
0!
0?
0T
#290000
1!
1?
1T
#300000
0!
0?
0T
#310000
1!
1?
1T
#320000
0!
0?
0T
#330000
1!
1?
1T
#340000
0!
0?
0T
#350000
1!
1?
1T
#360000
0!
0?
0T
#370000
1!
1?
1T
#380000
0!
0?
0T
#390000
1!
1?
1T
#400000
0!
0?
0T
#410000
1!
1?
1T
#420000
0!
0?
0T
#430000
1!
1?
1T
#440000
0!
0?
0T
#450000
1!
1?
1T
#460000
0!
0?
0T
#470000
1!
1?
1T
#480000
0!
0?
0T
#490000
1!
1?
1T
#500000
0!
0?
0T
#510000
1!
1?
1T
#520000
0!
0?
0T
#530000
1!
1?
1T
#540000
0!
0?
0T
#550000
1!
1?
1T
#560000
0!
0?
0T
#570000
1!
1?
1T
#580000
0!
0?
0T
#590000
1!
1?
1T
#600000
0!
0?
0T
#610000
1!
1?
1T
#620000
0!
0?
0T
#630000
1!
1?
1T
#640000
0!
0?
0T
#650000
1!
1?
1T
#660000
0!
0?
0T
#670000
1!
1?
1T
#680000
0!
0?
0T
#690000
1!
1?
1T
#700000
0!
0?
0T
#710000
1!
1?
1T
#720000
0!
0?
0T
#730000
1!
1?
1T
#740000
0!
0?
0T
#750000
1!
1?
1T
#760000
0!
0?
0T
#770000
1!
1?
1T
#780000
0!
0?
0T
#790000
1!
1?
1T
#800000
0!
0?
0T
#810000
1!
1?
1T
#820000
0!
0?
0T
#830000
1!
1?
1T
#840000
0!
0?
0T
#850000
1!
1?
1T
#860000
0!
0?
0T
#870000
1!
1?
1T
#880000
0!
0?
0T
#890000
1!
1?
1T
#900000
0!
0?
0T
#910000
1!
1?
1T
#920000
0!
0?
0T
#930000
1!
1?
1T
#940000
0!
0?
0T
#950000
1!
1?
1T
#960000
0!
0?
0T
#970000
1!
1?
1T
#980000
0!
0?
0T
#990000
1!
1?
1T
