aula5atv3/simulation/qsim/aula5atv3.msim.vcd
$comment
	File created using the following command:
		vcd file aula5atv3.msim.vcd -direction
$end
$date
	Mon Sep 19 16:06:22 2022
$end
$version
	ModelSim Version 2020.1
$end
$timescale
	1ps
$end

$scope module aula5atv3_vhd_vec_tst $end
$var wire 1 ! CLOCK_50 $end
$var wire 1 " KEY [3] $end
$var wire 1 # KEY [2] $end
$var wire 1 $ KEY [1] $end
$var wire 1 % KEY [0] $end
$var wire 1 & Palavra_Controle [11] $end
$var wire 1 ' Palavra_Controle [10] $end
$var wire 1 ( Palavra_Controle [9] $end
$var wire 1 ) Palavra_Controle [8] $end
$var wire 1 * Palavra_Controle [7] $end
$var wire 1 + Palavra_Controle [6] $end
$var wire 1 , Palavra_Controle [5] $end
$var wire 1 - Palavra_Controle [4] $end
$var wire 1 . Palavra_Controle [3] $end
$var wire 1 / Palavra_Controle [2] $end
$var wire 1 0 Palavra_Controle [1] $end
$var wire 1 1 Palavra_Controle [0] $end
$var wire 1 2 PC_OUT [8] $end
$var wire 1 3 PC_OUT [7] $end
$var wire 1 4 PC_OUT [6] $end
$var wire 1 5 PC_OUT [5] $end
$var wire 1 6 PC_OUT [4] $end
$var wire 1 7 PC_OUT [3] $end
$var wire 1 8 PC_OUT [2] $end
$var wire 1 9 PC_OUT [1] $end
$var wire 1 : PC_OUT [0] $end

$scope module i1 $end
$var wire 1 ; gnd $end
$var wire 1 < vcc $end
$var wire 1 = unknown $end
$var wire 1 > devoe $end
$var wire 1 ? devclrn $end
$var wire 1 @ devpor $end
$var wire 1 A ww_devoe $end
$var wire 1 B ww_devclrn $end
$var wire 1 C ww_devpor $end
$var wire 1 D ww_CLOCK_50 $end
$var wire 1 E ww_KEY [3] $end
$var wire 1 F ww_KEY [2] $end
$var wire 1 G ww_KEY [1] $end
$var wire 1 H ww_KEY [0] $end
$var wire 1 I ww_PC_OUT [8] $end
$var wire 1 J ww_PC_OUT [7] $end
$var wire 1 K ww_PC_OUT [6] $end
$var wire 1 L ww_PC_OUT [5] $end
$var wire 1 M ww_PC_OUT [4] $end
$var wire 1 N ww_PC_OUT [3] $end
$var wire 1 O ww_PC_OUT [2] $end
$var wire 1 P ww_PC_OUT [1] $end
$var wire 1 Q ww_PC_OUT [0] $end
$var wire 1 R ww_Palavra_Controle [11] $end
$var wire 1 S ww_Palavra_Controle [10] $end
$var wire 1 T ww_Palavra_Controle [9] $end
$var wire 1 U ww_Palavra_Controle [8] $end
$var wire 1 V ww_Palavra_Controle [7] $end
$var wire 1 W ww_Palavra_Controle [6] $end
$var wire 1 X ww_Palavra_Controle [5] $end
$var wire 1 Y ww_Palavra_Controle [4] $end
$var wire 1 Z ww_Palavra_Controle [3] $end
$var wire 1 [ ww_Palavra_Controle [2] $end
$var wire 1 \ ww_Palavra_Controle [1] $end
$var wire 1 ] ww_Palavra_Controle [0] $end
$var wire 1 ^ \CLOCK_50~input_o\ $end
$var wire 1 _ \KEY[1]~input_o\ $end
$var wire 1 ` \KEY[2]~input_o\ $end
$var wire 1 a \KEY[3]~input_o\ $end
$var wire 1 b \~QUARTUS_CREATED_GND~I_combout\ $end
$var wire 1 c \KEY[0]~input_o\ $end
$var wire 1 d \KEY[0]~inputCLKENA0_outclk\ $end
$var wire 1 e \incrementaPC|Add0~1_sumout\ $end
$var wire 1 f \ROM1|memROM~2_combout\ $end
$var wire 1 g \ROM1|memROM~4_combout\ $end
$var wire 1 h \PC|DOUT[2]~DUPLICATE_q\ $end
$var wire 1 i \ROM1|memROM~3_combout\ $end
$var wire 1 j \incrementaPC|Add0~14\ $end
$var wire 1 k \incrementaPC|Add0~17_sumout\ $end
$var wire 1 l \MUXJUMP|saida_MUX[4]~4_combout\ $end
$var wire 1 m \PC|DOUT[4]~DUPLICATE_q\ $end
$var wire 1 n \incrementaPC|Add0~18\ $end
$var wire 1 o \incrementaPC|Add0~21_sumout\ $end
$var wire 1 p \MUXJUMP|saida_MUX[5]~5_combout\ $end
$var wire 1 q \incrementaPC|Add0~22\ $end
$var wire 1 r \incrementaPC|Add0~25_sumout\ $end
$var wire 1 s \MUXJUMP|saida_MUX[6]~6_combout\ $end
$var wire 1 t \incrementaPC|Add0~26\ $end
$var wire 1 u \incrementaPC|Add0~29_sumout\ $end
$var wire 1 v \MUXJUMP|saida_MUX[7]~7_combout\ $end
$var wire 1 w \PC|DOUT[7]~DUPLICATE_q\ $end
$var wire 1 x \PC|DOUT[6]~DUPLICATE_q\ $end
$var wire 1 y \PC|DOUT[5]~DUPLICATE_q\ $end
$var wire 1 z \ROM1|memROM~1_combout\ $end
$var wire 1 { \DECO|saida~7_combout\ $end
$var wire 1 | \ROM1|memROM~5_combout\ $end
$var wire 1 } \RAM1|process_0~0_combout\ $end
$var wire 1 ~ \incrementaPC|Add0~30\ $end
$var wire 1 !! \incrementaPC|Add0~33_sumout\ $end
$var wire 1 "! \MUXJUMP|saida_MUX[8]~8_combout\ $end
$var wire 1 #! \PC|DOUT[8]~DUPLICATE_q\ $end
$var wire 1 $! \DECO|saida~8_combout\ $end
$var wire 1 %! \ROM1|memROM~13_combout\ $end
$var wire 1 &! \ROM1|memROM~14_combout\ $end
$var wire 1 '! \ROM1|memROM~11_combout\ $end
$var wire 1 (! \ROM1|memROM~12_combout\ $end
$var wire 1 )! \ROM1|memROM~9_combout\ $end
$var wire 1 *! \ROM1|memROM~10_combout\ $end
$var wire 1 +! \DECO|saida[6]~4_combout\ $end
$var wire 1 ,! \DECO|saida[4]~2_combout\ $end
$var wire 1 -! \ULA1|saida[5]~1_combout\ $end
$var wire 1 .! \DECO|saida[5]~3_combout\ $end
$var wire 1 /! \ROM1|memROM~7_combout\ $end
$var wire 1 0! \ROM1|memROM~8_combout\ $end
$var wire 1 1! \DECO|Equal5~0_combout\ $end
$var wire 1 2! \RAM1|ram~161_combout\ $end
$var wire 1 3! \RAM1|ram~22_q\ $end
$var wire 1 4! \RAM1|ram~147_combout\ $end
$var wire 1 5! \RAM1|ram~148_combout\ $end
$var wire 1 6! \ROM1|memROM~15_combout\ $end
$var wire 1 7! \REGA|DOUT[5]~DUPLICATE_q\ $end
$var wire 1 8! \ROM1|memROM~6_combout\ $end
$var wire 1 9! \ROM1|memROM~18_combout\ $end
$var wire 1 :! \ROM1|memROM~17_combout\ $end
$var wire 1 ;! \ROM1|memROM~16_combout\ $end
$var wire 1 <! \ULA1|Add1~34_cout\ $end
$var wire 1 =! \ULA1|Add1~17_sumout\ $end
$var wire 1 >! \ULA1|saida[0]~4_combout\ $end
$var wire 1 ?! \RAM1|ram~17_q\ $end
$var wire 1 @! \RAM1|ram~153_combout\ $end
$var wire 1 A! \RAM1|ram~154_combout\ $end
$var wire 1 B! \ULA1|Add1~18\ $end
$var wire 1 C! \ULA1|Add1~21_sumout\ $end
$var wire 1 D! \ULA1|saida[1]~5_combout\ $end
$var wire 1 E! \RAM1|ram~18_q\ $end
$var wire 1 F! \RAM1|ram~155_combout\ $end
$var wire 1 G! \RAM1|ram~156_combout\ $end
$var wire 1 H! \ULA1|Add1~22\ $end
$var wire 1 I! \ULA1|Add1~25_sumout\ $end
$var wire 1 J! \ULA1|saida[2]~6_combout\ $end
$var wire 1 K! \RAM1|ram~19_q\ $end
$var wire 1 L! \RAM1|ram~157_combout\ $end
$var wire 1 M! \RAM1|ram~158_combout\ $end
$var wire 1 N! \ULA1|Add1~26\ $end
$var wire 1 O! \ULA1|Add1~29_sumout\ $end
$var wire 1 P! \ULA1|saida[3]~7_combout\ $end
$var wire 1 Q! \RAM1|ram~20_q\ $end
$var wire 1 R! \RAM1|ram~159_combout\ $end
$var wire 1 S! \RAM1|ram~160_combout\ $end
$var wire 1 T! \ULA1|Add1~30\ $end
$var wire 1 U! \ULA1|Add1~1_sumout\ $end
$var wire 1 V! \ULA1|saida[4]~0_combout\ $end
$var wire 1 W! \RAM1|ram~21_q\ $end
$var wire 1 X! \RAM1|ram~145_combout\ $end
$var wire 1 Y! \RAM1|ram~146_combout\ $end
$var wire 1 Z! \ULA1|Add1~2\ $end
$var wire 1 [! \ULA1|Add1~5_sumout\ $end
$var wire 1 \! \ULA1|saida[6]~2_combout\ $end
$var wire 1 ]! \REGA|DOUT[6]~DUPLICATE_q\ $end
$var wire 1 ^! \RAM1|ram~23_q\ $end
$var wire 1 _! \RAM1|ram~149_combout\ $end
$var wire 1 `! \RAM1|ram~150_combout\ $end
$var wire 1 a! \ULA1|Add1~6\ $end
$var wire 1 b! \ULA1|Add1~9_sumout\ $end
$var wire 1 c! \DECO|saida~1_combout\ $end
$var wire 1 d! \ULA1|saida[7]~3_combout\ $end
$var wire 1 e! \RAM1|ram~24_q\ $end
$var wire 1 f! \RAM1|ram~151_combout\ $end
$var wire 1 g! \RAM1|ram~152_combout\ $end
$var wire 1 h! \REGA|DOUT[7]~DUPLICATE_q\ $end
$var wire 1 i! \ULA1|Add1~10\ $end
$var wire 1 j! \ULA1|Add1~13_sumout\ $end
$var wire 1 k! \FlagEq|DOUT[0]~DUPLICATE_q\ $end
$var wire 1 l! \FlagEq|DOUT[0]~1_combout\ $end
$var wire 1 m! \FlagEq|DOUT[0]~0_combout\ $end
$var wire 1 n! \DESV|saida[0]~0_combout\ $end
$var wire 1 o! \incrementaPC|Add0~2\ $end
$var wire 1 p! \incrementaPC|Add0~5_sumout\ $end
$var wire 1 q! \MUXJUMP|saida_MUX[1]~1_combout\ $end
$var wire 1 r! \PC|DOUT[1]~DUPLICATE_q\ $end
$var wire 1 s! \incrementaPC|Add0~6\ $end
$var wire 1 t! \incrementaPC|Add0~9_sumout\ $end
$var wire 1 u! \MUXJUMP|saida_MUX[2]~2_combout\ $end
$var wire 1 v! \incrementaPC|Add0~10\ $end
$var wire 1 w! \incrementaPC|Add0~13_sumout\ $end
$var wire 1 x! \MUXJUMP|saida_MUX[3]~3_combout\ $end
$var wire 1 y! \PC|DOUT[3]~DUPLICATE_q\ $end
$var wire 1 z! \ROM1|memROM~0_combout\ $end
$var wire 1 {! \DECO|saida~6_combout\ $end
$var wire 1 |! \MUXJUMP|saida_MUX[0]~0_combout\ $end
$var wire 1 }! \DECO|saida[1]~0_combout\ $end
$var wire 1 ~! \DECO|saida~5_combout\ $end
$var wire 1 !" \DECO|Equal4~0_combout\ $end
$var wire 1 "" \REGA|DOUT\ [7] $end
$var wire 1 #" \REGA|DOUT\ [6] $end
$var wire 1 $" \REGA|DOUT\ [5] $end
$var wire 1 %" \REGA|DOUT\ [4] $end
$var wire 1 &" \REGA|DOUT\ [3] $end
$var wire 1 '" \REGA|DOUT\ [2] $end
$var wire 1 (" \REGA|DOUT\ [1] $end
$var wire 1 )" \REGA|DOUT\ [0] $end
$var wire 1 *" \FlagEq|DOUT\ [0] $end
$var wire 1 +" \PC|DOUT\ [8] $end
$var wire 1 ," \PC|DOUT\ [7] $end
$var wire 1 -" \PC|DOUT\ [6] $end
$var wire 1 ." \PC|DOUT\ [5] $end
$var wire 1 /" \PC|DOUT\ [4] $end
$var wire 1 0" \PC|DOUT\ [3] $end
$var wire 1 1" \PC|DOUT\ [2] $end
$var wire 1 2" \PC|DOUT\ [1] $end
$var wire 1 3" \PC|DOUT\ [0] $end
$var wire 1 4" \REGEND|DOUT\ [8] $end
$var wire 1 5" \REGEND|DOUT\ [7] $end
$var wire 1 6" \REGEND|DOUT\ [6] $end
$var wire 1 7" \REGEND|DOUT\ [5] $end
$var wire 1 8" \REGEND|DOUT\ [4] $end
$var wire 1 9" \REGEND|DOUT\ [3] $end
$var wire 1 :" \REGEND|DOUT\ [2] $end
$var wire 1 ;" \REGEND|DOUT\ [1] $end
$var wire 1 <" \REGEND|DOUT\ [0] $end
$var wire 1 =" \FlagEq|ALT_INV_DOUT[0]~DUPLICATE_q\ $end
$var wire 1 >" \PC|ALT_INV_DOUT[8]~DUPLICATE_q\ $end
$var wire 1 ?" \PC|ALT_INV_DOUT[7]~DUPLICATE_q\ $end
$var wire 1 @" \PC|ALT_INV_DOUT[6]~DUPLICATE_q\ $end
$var wire 1 A" \PC|ALT_INV_DOUT[5]~DUPLICATE_q\ $end
$var wire 1 B" \PC|ALT_INV_DOUT[4]~DUPLICATE_q\ $end
$var wire 1 C" \PC|ALT_INV_DOUT[3]~DUPLICATE_q\ $end
$var wire 1 D" \PC|ALT_INV_DOUT[2]~DUPLICATE_q\ $end
$var wire 1 E" \PC|ALT_INV_DOUT[1]~DUPLICATE_q\ $end
$var wire 1 F" \REGA|ALT_INV_DOUT[7]~DUPLICATE_q\ $end
$var wire 1 G" \REGA|ALT_INV_DOUT[5]~DUPLICATE_q\ $end
$var wire 1 H" \FlagEq|ALT_INV_DOUT[0]~1_combout\ $end
$var wire 1 I" \RAM1|ALT_INV_ram~160_combout\ $end
$var wire 1 J" \RAM1|ALT_INV_ram~159_combout\ $end
$var wire 1 K" \RAM1|ALT_INV_ram~20_q\ $end
$var wire 1 L" \ROM1|ALT_INV_memROM~18_combout\ $end
$var wire 1 M" \RAM1|ALT_INV_ram~158_combout\ $end
$var wire 1 N" \RAM1|ALT_INV_ram~157_combout\ $end
$var wire 1 O" \RAM1|ALT_INV_ram~19_q\ $end
$var wire 1 P" \ROM1|ALT_INV_memROM~17_combout\ $end
$var wire 1 Q" \RAM1|ALT_INV_ram~156_combout\ $end
$var wire 1 R" \RAM1|ALT_INV_ram~155_combout\ $end
$var wire 1 S" \RAM1|ALT_INV_ram~18_q\ $end
$var wire 1 T" \ROM1|ALT_INV_memROM~16_combout\ $end
$var wire 1 U" \RAM1|ALT_INV_ram~154_combout\ $end
$var wire 1 V" \RAM1|ALT_INV_ram~153_combout\ $end
$var wire 1 W" \RAM1|ALT_INV_ram~17_q\ $end
$var wire 1 X" \RAM1|ALT_INV_ram~152_combout\ $end
$var wire 1 Y" \RAM1|ALT_INV_ram~151_combout\ $end
$var wire 1 Z" \RAM1|ALT_INV_ram~24_q\ $end
$var wire 1 [" \RAM1|ALT_INV_ram~150_combout\ $end
$var wire 1 \" \RAM1|ALT_INV_ram~149_combout\ $end
$var wire 1 ]" \RAM1|ALT_INV_ram~23_q\ $end
$var wire 1 ^" \ROM1|ALT_INV_memROM~15_combout\ $end
$var wire 1 _" \RAM1|ALT_INV_ram~148_combout\ $end
$var wire 1 `" \RAM1|ALT_INV_ram~147_combout\ $end
$var wire 1 a" \RAM1|ALT_INV_ram~22_q\ $end
$var wire 1 b" \RAM1|ALT_INV_ram~146_combout\ $end
$var wire 1 c" \RAM1|ALT_INV_ram~145_combout\ $end
$var wire 1 d" \RAM1|ALT_INV_ram~21_q\ $end
$var wire 1 e" \DECO|ALT_INV_saida~8_combout\ $end
$var wire 1 f" \RAM1|ALT_INV_process_0~0_combout\ $end
$var wire 1 g" \REGEND|ALT_INV_DOUT\ [8] $end
$var wire 1 h" \REGEND|ALT_INV_DOUT\ [7] $end
$var wire 1 i" \REGEND|ALT_INV_DOUT\ [6] $end
$var wire 1 j" \REGEND|ALT_INV_DOUT\ [5] $end
$var wire 1 k" \REGEND|ALT_INV_DOUT\ [4] $end
$var wire 1 l" \REGEND|ALT_INV_DOUT\ [3] $end
$var wire 1 m" \REGEND|ALT_INV_DOUT\ [2] $end
$var wire 1 n" \REGEND|ALT_INV_DOUT\ [1] $end
$var wire 1 o" \REGEND|ALT_INV_DOUT\ [0] $end
$var wire 1 p" \ROM1|ALT_INV_memROM~14_combout\ $end
$var wire 1 q" \ROM1|ALT_INV_memROM~13_combout\ $end
$var wire 1 r" \ROM1|ALT_INV_memROM~12_combout\ $end
$var wire 1 s" \ROM1|ALT_INV_memROM~11_combout\ $end
$var wire 1 t" \ROM1|ALT_INV_memROM~10_combout\ $end
$var wire 1 u" \ROM1|ALT_INV_memROM~9_combout\ $end
$var wire 1 v" \ROM1|ALT_INV_memROM~8_combout\ $end
$var wire 1 w" \ROM1|ALT_INV_memROM~7_combout\ $end
$var wire 1 x" \DESV|ALT_INV_saida[0]~0_combout\ $end
$var wire 1 y" \FlagEq|ALT_INV_DOUT\ [0] $end
$var wire 1 z" \ROM1|ALT_INV_memROM~6_combout\ $end
$var wire 1 {" \ROM1|ALT_INV_memROM~5_combout\ $end
$var wire 1 |" \DECO|ALT_INV_saida~7_combout\ $end
$var wire 1 }" \DECO|ALT_INV_saida[6]~4_combout\ $end
$var wire 1 ~" \DECO|ALT_INV_saida[4]~2_combout\ $end
$var wire 1 !# \DECO|ALT_INV_saida~1_combout\ $end
$var wire 1 "# \DECO|ALT_INV_Equal5~0_combout\ $end
$var wire 1 ## \ROM1|ALT_INV_memROM~4_combout\ $end
$var wire 1 $# \ROM1|ALT_INV_memROM~3_combout\ $end
$var wire 1 %# \ROM1|ALT_INV_memROM~2_combout\ $end
$var wire 1 &# \ROM1|ALT_INV_memROM~1_combout\ $end
$var wire 1 '# \ROM1|ALT_INV_memROM~0_combout\ $end
$var wire 1 (# \PC|ALT_INV_DOUT\ [8] $end
$var wire 1 )# \PC|ALT_INV_DOUT\ [7] $end
$var wire 1 *# \PC|ALT_INV_DOUT\ [6] $end
$var wire 1 +# \PC|ALT_INV_DOUT\ [5] $end
$var wire 1 ,# \PC|ALT_INV_DOUT\ [4] $end
$var wire 1 -# \PC|ALT_INV_DOUT\ [3] $end
$var wire 1 .# \PC|ALT_INV_DOUT\ [2] $end
$var wire 1 /# \PC|ALT_INV_DOUT\ [1] $end
$var wire 1 0# \PC|ALT_INV_DOUT\ [0] $end
$var wire 1 1# \REGA|ALT_INV_DOUT\ [6] $end
$var wire 1 2# \REGA|ALT_INV_DOUT\ [5] $end
$var wire 1 3# \REGA|ALT_INV_DOUT\ [4] $end
$var wire 1 4# \REGA|ALT_INV_DOUT\ [3] $end
$var wire 1 5# \REGA|ALT_INV_DOUT\ [2] $end
$var wire 1 6# \REGA|ALT_INV_DOUT\ [1] $end
$var wire 1 7# \REGA|ALT_INV_DOUT\ [0] $end
$var wire 1 8# \ULA1|ALT_INV_Add1~29_sumout\ $end
$var wire 1 9# \ULA1|ALT_INV_Add1~25_sumout\ $end
$var wire 1 :# \ULA1|ALT_INV_Add1~21_sumout\ $end
$var wire 1 ;# \ULA1|ALT_INV_Add1~17_sumout\ $end
$var wire 1 <# \ULA1|ALT_INV_Add1~13_sumout\ $end
$var wire 1 =# \ULA1|ALT_INV_Add1~9_sumout\ $end
$var wire 1 ># \ULA1|ALT_INV_Add1~5_sumout\ $end
$var wire 1 ?# \ULA1|ALT_INV_Add1~1_sumout\ $end
$var wire 1 @# \incrementaPC|ALT_INV_Add0~33_sumout\ $end
$var wire 1 A# \incrementaPC|ALT_INV_Add0~29_sumout\ $end
$var wire 1 B# \incrementaPC|ALT_INV_Add0~25_sumout\ $end
$var wire 1 C# \incrementaPC|ALT_INV_Add0~21_sumout\ $end
$var wire 1 D# \incrementaPC|ALT_INV_Add0~17_sumout\ $end
$var wire 1 E# \incrementaPC|ALT_INV_Add0~13_sumout\ $end
$var wire 1 F# \incrementaPC|ALT_INV_Add0~9_sumout\ $end
$var wire 1 G# \incrementaPC|ALT_INV_Add0~5_sumout\ $end
$var wire 1 H# \incrementaPC|ALT_INV_Add0~1_sumout\ $end
$upscope $end
$upscope $end
$enddefinitions $end
#0
$dumpvars
x!
0;
1<
x=
1>
1?
1@
1A
1B
1C
xD
x^
x_
x`
xa
xb
1c
1d
1e
1f
0g
0h
1i
0j
0k
0l
0m
0n
0o
0p
0q
0r
0s
0t
0u
0v
0w
0x
0y
1z
0{
1|
0}
0~
0!!
0"!
0#!
1$!
1%!
0&!
1'!
1(!
1)!
1*!
0+!
0,!
0-!
0.!
0/!
00!
01!
02!
03!
04!
05!
06!
07!
08!
09!
0:!
0;!
1<!
0=!
0>!
0?!
0@!
0A!
1B!
0C!
0D!
0E!
0F!
0G!
1H!
0I!
0J!
0K!
0L!
0M!
1N!
0O!
0P!
0Q!
0R!
0S!
1T!
0U!
0V!
0W!
0X!
0Y!
1Z!
0[!
0\!
0]!
0^!
0_!
0`!
1a!
0b!
1c!
0d!
0e!
0f!
0g!
0h!
1i!
0j!
0k!
0l!
0m!
1n!
0o!
0p!
1q!
0r!
0s!
0t!
1u!
0v!
0w!
1x!
0y!
0z!
1{!
0|!
0}!
0~!
0!"
1="
1>"
1?"
1@"
1A"
1B"
1C"
1D"
1E"
1F"
1G"
1H"
1I"
1J"
1K"
1L"
1M"
1N"
1O"
1P"
1Q"
1R"
1S"
1T"
1U"
1V"
1W"
1X"
1Y"
1Z"
1["
1\"
1]"
1^"
1_"
1`"
1a"
1b"
1c"
1d"
0e"
1f"
1p"
0q"
0r"
0s"
0t"
0u"
1v"
1w"
0x"
1z"
0{"
1|"
1}"
1~"
0!#
1"#
1##
0$#
0%#
0&#
1'#
18#
19#
1:#
1;#
1<#
1=#
1>#
1?#
1@#
1A#
1B#
1C#
1D#
1E#
1F#
1G#
0H#
x"
x#
x$
1%
02
03
04
05
06
07
08
09
0:
1&
0'
0(
1)
0*
0+
0,
0-
0.
0/
00
01
xE
xF
xG
1H
0I
0J
0K
0L
0M
0N
0O
0P
0Q
1R
0S
0T
1U
0V
0W
0X
0Y
0Z
0[
0\
0]
0""
0#"
0$"
0%"
0&"
0'"
0("
0)"
0*"
0+"
0,"
0-"
0."
0/"
00"
01"
02"
03"
04"
05"
06"
07"
08"
09"
0:"
0;"
0<"
1g"
1h"
1i"
1j"
1k"
1l"
1m"
1n"
1o"
1y"
1(#
1)#
1*#
1+#
1,#
1-#
1.#
1/#
10#
11#
x2#
13#
14#
15#
16#
17#
$end
#10000
0%
0H
0c
0d
#20000
1%
1H
1c
1d
10"
1h
12"
1r!
11"
1y!
1<"
0o"
0C"
0.#
0E"
0/#
0D"
0-#
1w!
1p!
1t!
0f
0i
0%!
0'!
0)!
1u"
1s"
1q"
1$#
1%#
0F#
0G#
0E#
1O
1P
1N
0n!
16!
18!
0{!
1&!
0(!
19!
0*!
1:!
19
18
17
0P"
1t"
0L"
1r"
0p"
0z"
0^"
1x"
1|!
0U
0R
0)
0&
#30000
0%
0H
0c
0d
#40000
1%
1H
1c
1d
13"
00#
0e
1o!
1f
1z!
0'#
0%#
1H#
1Q
0p!
1s!
0|!
1{
1G#
1:
0t!
1v!
0|"
0q!
1F#
0u!
0x!
1|!
0w!
1j
1E#
1T
1k
0D#
1(
#50000
0%
0H
0c
0d
#60000
1%
1H
1c
1d
00"
0h
02"
0r!
01"
0y!
1C"
1.#
1E"
1/#
1D"
1-#
1w!
0j
1p!
0s!
1t!
0v!
0f
1g
1'!
1/!
0w"
0s"
0##
1%#
0F#
0G#
0E#
0O
0P
0N
0w!
0t!
0k
0{
1n!
1!"
1(!
09!
10!
1;!
1D#
1F#
1E#
09
08
07
0T"
0v"
1L"
0r"
0x"
1|"
1u!
1S
0T
0(
1'
#70000
0%
0H
0c
0d
#80000
1%
1H
1c
1d
1h
11"
0.#
0D"
1t!
0z!
1'#
0F#
1O
0$!
1+!
1,!
1.!
0n!
0!"
18
1x"
0~"
0}"
1e"
1=!
0B!
1I!
0N!
1>!
1J!
1q!
0|!
09#
0;#
0S
1X
1Y
1W
1O!
0T!
1C!
0H!
0:#
08#
1-
1,
1+
0'
0I!
1U!
0Z!
0?#
19#
1[!
0a!
0>#
1b!
0i!
0=#
1j!
0<#
#90000
0%
0H
0c
0d
#100000
1%
1H
1c
1d
12"
1)"
1'"
1r!
03"
10#
0E"
05#
07#
0/#
0=!
1B!
1I!
0p!
1s!
1e
0o!
1i
1}
0'!
0/!
1w"
1s"
0f"
0$#
0H#
1G#
09#
1;#
0Q
1P
1p!
0s!
0t!
1v!
0C!
1H!
0q!
1|!
0+!
0,!
0.!
11!
06!
08!
0(!
19!
00!
0;!
1:#
1F#
0G#
0:
19
0I!
1N!
1w!
1t!
0v!
1T"
1v"
0L"
1r"
1z"
1^"
0"#
1~"
1}"
1q!
0u!
0F#
0E#
19#
1-!
1P!
1V!
1\!
1d!
1I!
12!
0>!
1=!
0w!
0O!
1T!
0J!
1x!
1u!
18#
1E#
0;#
09#
1]
0X
0Y
0W
0U!
1Z!
1J!
1>!
0x!
0P!
1?#
11
0-
0,
0+
0[!
1a!
0V!
1>#
0b!
1i!
0-!
1=#
0j!
0\!
1<#
0d!
#110000
0%
0H
0c
0d
#120000
1%
1H
1c
1d
1?!
1K!
13"
00#
0O"
0W"
1@!
1L!
0e
1o!
1f
0g
0i
1$#
1##
0%#
1H#
0N"
0V"
1Q
0p!
1s!
1A!
1M!
0|!
1$!
1n!
01!
16!
18!
0c!
1}!
1G#
1:
0t!
1v!
1!#
0z"
0^"
1"#
0x"
0e"
0M"
0U"
0q!
1F#
0=!
0I!
1"!
0u!
02!
0n!
1w!
0E#
1x"
19#
1;#
1\
0]
1[
0>!
0J!
1l!
0"!
1x!
01
10
0H"
1/
1m!
#130000
0%
0H
0c
0d
#140000
1%
1H
1c
1d
10"
0h
02"
1k!
1*"
0r!
01"
1y!
03"
10#
0C"
1.#
1E"
0y"
0="
1/#
1D"
0-#
0w!
1j
1p!
0s!
1t!
0v!
1e
0o!
0f
1g
0}
1)!
1z!
0'#
0u"
1f"
0##
1%#
0H#
0F#
0G#
1E#
0Q
0O
0P
1N
0p!
1w!
0j
0t!
1k
0x!
1q!
1u!
1|!
1*!
0:!
1c!
1n!
0}!
1!"
0D#
1F#
0E#
1G#
0:
09
08
17
0k
0x"
0!#
1P"
0t"
0q!
1x!
0u!
1l
1D#
0A!
0M!
0l
1q!
0x!
0|!
1M"
1U"
1S
0\
0[
1=!
1I!
00
1'
09#
0;#
0/
1>!
1J!
#150000
0%
0H
0c
0d
#160000
1%
1H
1c
1d
00"
12"
1r!
0y!
1C"
0E"
0/#
1-#
0w!
1p!
1i
1%!
0)!
1/!
0w"
1u"
0q"
0$#
0G#
1E#
1P
0N
06!
08!
1~!
0!"
0&!
0*!
1:!
10!
1;!
19
07
0T"
0v"
0P"
1t"
1p"
1z"
1^"
0@!
0L!
1x!
0q!
1|!
1N"
1V"
0S
1V
1*
0'
#170000
0%
0H
0c
0d
#180000
1%
1H
1c
1d
10"
02"
0r!
1y!
13"
00#
0C"
1E"
1/#
0-#
1w!
0p!
0e
1o!
0g
0i
0%!
0/!
0z!
1'#
1w"
1q"
1$#
1##
1H#
1G#
0E#
1Q
0P
1N
1p!
16!
18!
1&!
00!
0;!
0n!
0~!
0G#
1:
09
17
1x"
1T"
1v"
0p"
0z"
0^"
1@!
1L!
1q!
0|!
0N"
0V"
0V
1A!
1M!
0*
0M"
0U"
0=!
0I!
19#
1;#
0>!
0J!
#190000
0%
0H
0c
0d
#200000
1%
1H
1c
1d
12"
1r!
03"
10#
0E"
0/#
0p!
1s!
1e
0o!
1g
1'!
0s"
0##
0H#
1G#
0Q
1P
1p!
0s!
1t!
0q!
1|!
0$!
1+!
1,!
1.!
1(!
09!
0F#
0G#
0:
19
0t!
1L"
0r"
0~"
0}"
1e"
1q!
1u!
1F#
1=!
0@!
1J!
0L!
0u!
1N"
1V"
0;#
1X
1Y
1W
0A!
0M!
1-
1,
1+
1M"
1U"
#210000
0%
0H
0c
0d
#220000
1%
1H
1c
1d
0)"
13"
00#
17#
0=!
0e
1o!
1f
0g
1}
0'!
1s"
0f"
1##
0%#
1H#
1;#
1Q
0p!
1s!
0|!
1$!
0+!
0,!
0.!
0c!
1}!
0(!
19!
1G#
1:
1t!
0L"
1r"
1!#
1~"
1}"
0e"
0q!
0F#
1@!
0J!
1L!
1I!
1u!
09#
0N"
0V"
1\
0X
0Y
0W
1[
1A!
1M!
1J!
0l!
10
0-
0,
0+
1H"
0M"
0U"
1/
1=!
0B!
0I!
0m!
19#
0;#
1C!
0H!
1>!
0J!
0:#
1I!
0N!
1D!
09#
1O!
0T!
1J!
08#
1U!
0Z!
1P!
0?#
1[!
0a!
1V!
0>#
1b!
0i!
1-!
0=#
1j!
1\!
0<#
1d!
#230000
0%
0H
0c
0d
#240000
1%
1H
1c
1d
1h
02"
0k!
0*"
0r!
11"
03"
10#
0.#
1E"
1y"
1="
1/#
0D"
1p!
0s!
0t!
1v!
1e
0o!
0f
1g
1i
0}
1)!
1/!
1z!
0'#
0w"
0u"
1f"
0$#
0##
1%#
0H#
1F#
0G#
0Q
1O
0P
0p!
0w!
1j
1t!
0v!
1q!
0u!
1|!
06!
08!
1*!
0:!
10!
1;!
1c!
1n!
0}!
1~!
0F#
1E#
1G#
0:
09
18
1w!
0j
1k
0x"
0!#
0T"
0v"
1P"
0t"
1z"
1^"
0q!
0x!
1u!
0D#
0E#
0n!
0A!
0M!
1q!
0u!
0k
1D#
1M"
1U"
1x"
1V
0\
0[
0q!
1u!
1x!
0=!
1B!
0I!
1N!
00
1*
19#
1;#
0/
0O!
1T!
0C!
1H!
0>!
0J!
1:#
18#
1I!
0U!
1Z!
0P!
0D!
1?#
09#
0[!
1a!
1J!
0V!
1>#
0b!
1i!
0-!
1=#
0j!
0\!
1<#
0d!
#250000
0%
0H
0c
0d
#260000
1%
1H
1c
1d
13"
00#
0e
1o!
0i
1%!
1'!
0)!
1u"
0s"
0q"
1$#
1H#
1Q
1p!
0|!
16!
18!
0~!
1!"
0&!
1(!
09!
0*!
1:!
0G#
1:
0P"
1t"
1L"
0r"
1p"
0z"
0^"
1q!
1n!
0@!
0L!
1N"
1V"
0x"
1S
0V
0q!
1|!
0*
1'
#270000
0%
0H
0c
0d
#280000
1%
1H
1c
1d
#290000
0%
0H
0c
0d
#300000
1%
1H
1c
1d
#310000
0%
0H
0c
0d
#320000
1%
1H
1c
1d
#330000
0%
0H
0c
0d
#340000
1%
1H
1c
1d
#350000
0%
0H
0c
0d
#360000
1%
1H
1c
1d
#370000
0%
0H
0c
0d
#380000
1%
1H
1c
1d
#390000
0%
0H
0c
0d
#400000
1%
1H
1c
1d
